…
``` r
set.seed(23)

boot_weather <- bootstrap(weather_df, 5000) %>% 
  rename(boot_sample = strap, boot_id = .id) %>% 
  mutate(boot_id = as.integer(boot_id))
```

``` r
as.data.frame(boot_weather$boot_sample[[1]])
```

    ## # A tibble: 365 × 6
    ##    name           id          date        prcp  tmax  tmin
    ##    <chr>          <chr>       <date>     <dbl> <dbl> <dbl>
    ##  1 CentralPark_NY USW00094728 2017-10-11    15  25    15.6
    ##  2 CentralPark_NY USW00094728 2017-09-05     0  29.4  20.6
    ##  3 CentralPark_NY USW00094728 2017-05-01     0  23.3   9.4
    ##  4 CentralPark_NY USW00094728 2017-06-20     8  28.3  21.7
    ##  5 CentralPark_NY USW00094728 2017-04-13     0  18.3   8.9
    ##  6 CentralPark_NY USW00094728 2017-10-28     0  20.6  12.8
    ##  7 CentralPark_NY USW00094728 2017-10-17     0  14.4   5.6
    ##  8 CentralPark_NY USW00094728 2017-05-29    33  16.1  13.3
    ##  9 CentralPark_NY USW00094728 2017-05-25   147  15    13.3
    ## 10 CentralPark_NY USW00094728 2017-06-13     0  34.4  25  
    ## # … with 355 more rows
…
